Sparse Polygon Rasterization with Exact Coverage Fractions • controlledburn
…
Really fast.

system.time(r1 <- burn_scanline(wkbgeom, dimension = c(8192, 4096) * 20))
#>    user  system elapsed 
#>  17.005   0.625  17.629
pryr::object_size(r1)
#> 278.56 MB
tibble::as_tibble(r1$runs)
#> # A tibble: 2,402,331 × 4
#>      row col_start col_end    id
#>    <int>     <int>   <int> <int>
#>  1 21300    114229  114229     1
#>  2 21301    114228  114231     1
#>  3 21302    114227  114232     1
#>  4 21303    114226  114232     1
#>  5 21304    114225  114232     1
#>  6 21305    114224  114232     1
#>  7 21306    114210  114215     1
#>  8 21306    114221  114234     1
#>  9 21307    114209  114235     1
#> 10 21308    114209  114236     1
#> # ℹ 2,402,321 more rows
tibble::as_tibble(r1$edges)
#> # A tibble: 12,006,186 × 4
#>      row    col   weight    id
#>    <int>  <int>    <dbl> <int>
#>  1 21299 114228 0.49016      1
#>  2 21299 114229 0.52762      1
#>  3 21299 114230 0.029348     1
#>  4 21300 114227 0.14377      1
#>  5 21300 114228 0.91647      1
#>  6 21300 114230 0.95528      1
#>  7 21300 114231 0.61698      1
#>  8 21300 114232 0.36007      1
#>  9 21301 114226 0.44189      1
#> 10 21301 114227 0.95691      1
#> # ℹ 12,006,176 more rows
…
